<svg version="1.1" id="Слой_1" xmlns="http://www.w3.org/2000/svg" xmlns:xlink="http://www.w3.org/1999/xlink" x="0px" y="0px"
	 viewBox="0 0 16 16" style="enable-background:new 0 0 16 16;" xml:space="preserve">
<style>
	path{
		fill: #97c89a;
	}
</style>
<path d="M9.4,8l6.3-6.3c0.4-0.4,0.4-1,0-1.4s-1-0.4-1.4,0L8,6.6L1.7,0.3c-0.4-0.4-1-0.4-1.4,0s-0.4,1,0,1.4L6.6,8l-6.3,6.3
	c-0.4,0.4-0.4,1,0,1.4c0,0,0,0,0,0c0.4,0.4,1,0.4,1.4,0c0,0,0,0,0,0L8,9.4l6.3,6.3c0.4,0.4,1,0.4,1.4,0c0,0,0,0,0,0
	c0.4-0.4,0.4-1,0-1.4c0,0,0,0,0,0L9.4,8z"/>
</svg>
