<svg version="1.1" id="Слой_1" xmlns="http://www.w3.org/2000/svg" xmlns:xlink="http://www.w3.org/1999/xlink" x="0px" y="0px"
	 viewBox="0 0 274 200" style="enable-background:new 0 0 274 200;" xml:space="preserve">
<style>
	path{
		fill: #97c89a;
	}
</style>
<g>
	<path stroke="#97c89a" d="M17,69C8,79-6,65,3,55c74-73,194-73,268,0c9,10-5,24-14,14C191,4,83,4,17,69z"/>
	<path stroke="#97c89a" d="M56,108c-9,10-23-4-14-14c52-52,138-52,190,0c9,10-5,24-14,14C174,64,101,64,56,108z"/>
	<path stroke="#97c89a" d="M95,147c-9,10-23-4-14-14c31-30,81-30,112,0c9,10-5,24-14,14C156,125,118,125,95,147z"/>
	<path stroke="#97c89a" d="M137,164c10,0,18,8,18,18s-8,18-18,18s-18-8-18-18S127,164,137,164z"/>
</g>
</svg>
